module wangyifei_strategy

go 1.21.1

require (
	github.com/go-redis/redis v6.15.9+incompatible
	github.com/go-sql-driver/mysql v1.7.1
	github.com/sirupsen/logrus v1.9.3
	github.com/spf13/viper v1.16.0
	gopkg.in/natefinch/lumberjack.v2 v2.2.1
)

require (
	github.com/anacrolix/missinggo v1.3.0 // indirect
	github.com/anacrolix/missinggo/perf v1.0.0 // indirect
	github.com/anacrolix/missinggo/v2 v2.7.3 // indirect
	github.com/anacrolix/sync v0.5.1 // indirect
	github.com/anacrolix/utp v0.2.0 // indirect
	github.com/fsnotify/fsnotify v1.6.0 // indirect
	github.com/go-ini/ini v1.67.0 // indirect
	github.com/go-ole/go-ole v1.3.0 // indirect
	github.com/gorilla/websocket v1.5.0 // indirect
	github.com/hashicorp/hcl v1.0.0 // indirect
	github.com/huandu/xstrings v1.4.0 // indirect
	github.com/magiconair/properties v1.8.7 // indirect
	github.com/mitchellh/mapstructure v1.5.0 // indirect
	github.com/onsi/ginkgo v1.16.5 // indirect
	github.com/onsi/gomega v1.27.10 // indirect
	github.com/pelletier/go-toml/v2 v2.0.8 // indirect
	github.com/shirou/gopsutil v3.21.11+incompatible // indirect
	github.com/shopspring/decimal v1.3.1 // indirect
	github.com/spf13/afero v1.9.5 // indirect
	github.com/spf13/cast v1.5.1 // indirect
	github.com/spf13/jwalterweatherman v1.1.0 // indirect
	github.com/spf13/pflag v1.0.5 // indirect
	github.com/subosito/gotenv v1.4.2 // indirect
	github.com/tklauser/go-sysconf v0.3.12 // indirect
	github.com/tklauser/numcpus v0.6.1 // indirect
	github.com/yusufpapurcu/wmi v1.2.3 // indirect
	golang.org/x/sys v0.13.0 // indirect
	golang.org/x/text v0.11.0 // indirect
	gopkg.in/ini.v1 v1.67.0 // indirect
	gopkg.in/yaml.v3 v3.0.1 // indirect
)
